<?xml version="1.0" encoding="utf-8"?>
<!-- Generator: Adobe Illustrator 22.1.0, SVG Export Plug-In . SVG Version: 6.00 Build 0)  -->
<svg version="1.1" id="Calque_1" xmlns="http://www.w3.org/2000/svg" xmlns:xlink="http://www.w3.org/1999/xlink" x="0px" y="0px"
	 width="512px" height="512px" viewBox="0 0 512 512" style="enable-background:new 0 0 512 512;" xml:space="preserve">
<style type="text/css">
	.st0{fill:#FFFFFF;}
</style>
<g>
	<g>
		<path class="st0" d="M415.1,390v21.6l10,4.3v8.3l-43.2-19.4v-7.9l43.2-19.5v8.4L415.1,390z M408.8,392.6l-18.9,8.1l18.9,8.1V392.6
			z"/>
		<path class="st0" d="M381.9,369.3v-8h36.4v-22.6h6.8v30.6H381.9z"/>
		<path class="st0" d="M381.9,329.9v-8h36.4v-22.6h6.8v30.6H381.9z"/>
		<path class="st0" d="M381.9,290.5v-8h43.2v8H381.9z"/>
		<path class="st0" d="M415.1,240.4V262l10,4.3v8.3l-43.2-19.4v-7.9l43.2-19.5v8.4L415.1,240.4z M408.8,243.1l-18.9,8.1l18.9,8.1
			V243.1z"/>
		<path class="st0" d="M381.9,181.4h43.2v6.6l-29.2,23.8h29.2v8h-43.2v-6.6l29.2-23.8h-29.2V181.4z"/>
		<path class="st0" d="M403.5,170.4c-12.9,0-22.2-9.9-22.2-23.1c0-7,2.5-13.1,7.2-17.1l4.9,5.2c-3.4,3.1-5.1,7-5.1,11.5
			c0,8.9,6.3,15.4,15.2,15.4c8.9,0,15.2-6.5,15.2-15.4c0-4.5-1.7-8.4-5.1-11.5l4.9-5.2c4.7,4,7.2,10.1,7.2,17.1
			C425.7,160.6,416.4,170.4,403.5,170.4z"/>
		<path class="st0" d="M418.4,87.7h6.7v32.4h-43.2V88.6h6.7V112h11.2V91.2h6.6V112h11.9V87.7z"/>
	</g>
	<g>
		<path class="st0" d="M88.1,113.1c0-14.9,11.6-25.9,27.4-25.9c15.7,0,27.4,10.9,27.4,25.9c0,14.9-11.7,25.9-27.4,25.9
			C99.7,139,88.1,127.9,88.1,113.1z M131.2,113.1c0-9.5-6.7-16-15.7-16s-15.7,6.5-15.7,16c0,9.5,6.7,16,15.7,16
			S131.2,122.6,131.2,113.1z"/>
		<path class="st0" d="M165.6,133.2l3.9-8.7c4.2,3.1,10.5,5.2,16.5,5.2c6.9,0,9.7-2.3,9.7-5.4c0-9.4-29.1-2.9-29.1-21.5
			c0-8.5,6.9-15.6,21.1-15.6c6.3,0,12.7,1.5,17.4,4.4l-3.6,8.8c-4.6-2.6-9.4-3.9-13.9-3.9c-6.9,0-9.5,2.6-9.5,5.7
			c0,9.2,29.1,2.9,29.1,21.2c0,8.4-6.9,15.5-21.2,15.5C178,139,170,136.6,165.6,133.2z"/>
		<path class="st0" d="M276.4,106.2c0,11.2-8.4,18.1-21.7,18.1h-10.1v13.8H233V88h21.7C268.1,88,276.4,95,276.4,106.2z M264.7,106.2
			c0-5.5-3.6-8.7-10.7-8.7h-9.4v17.4h9.4C261.1,114.9,264.7,111.6,264.7,106.2z"/>
		<path class="st0" d="M300.1,113.1c0-14.9,11.6-25.9,27.4-25.9c15.7,0,27.4,10.9,27.4,25.9c0,14.9-11.7,25.9-27.4,25.9
			C311.7,139,300.1,127.9,300.1,113.1z M343.2,113.1c0-9.5-6.7-16-15.7-16s-15.7,6.5-15.7,16c0,9.5,6.7,16,15.7,16
			S343.2,122.6,343.2,113.1z"/>
	</g>
	<path class="st0" d="M322.2,233.7h-41.1v-35.5c0-11.5-9.4-20.9-20.9-20.9H110.8c-11.5,0-20.9,9.4-20.9,20.9v149.5
		c0,11.5,9.4,20.9,20.9,20.9h41.1v35.5c0,11.5,9.4,20.9,20.9,20.9h149.5c11.5,0,20.9-9.4,20.9-20.9V254.7
		C343.2,243.1,333.8,233.7,322.2,233.7z M110.8,354.7c-3.8,0-7-3.1-7-7V198.3c0-3.8,3.1-7,7-7h149.5c3.8,0,7,3.1,7,7v35.5h-94.5
		c-11.5,0-20.9,9.4-20.9,20.9v100.1H110.8z M267.2,247.7v100.1c0,3.8-3.1,7-7,7h-94.5V254.7c0-3.8,3.1-7,7-7H267.2z M329.2,404.2
		c0,3.8-3.1,7-7,7H172.7c-3.8,0-7-3.1-7-7v-35.5h94.5c11.5,0,20.9-9.4,20.9-20.9V247.7h41.1c3.8,0,7,3.1,7,7V404.2z"/>
	<rect x="179.5" y="261.4" class="st0" width="74" height="79.6"/>
</g>
</svg>
