<?xml version="1.0" encoding="utf-8"?>
<!-- Generator: Adobe Illustrator 22.1.0, SVG Export Plug-In . SVG Version: 6.00 Build 0)  -->
<svg version="1.1" id="Calque_1" xmlns="http://www.w3.org/2000/svg" xmlns:xlink="http://www.w3.org/1999/xlink" x="0px" y="0px"
	 width="512px" height="512px" viewBox="0 0 512 512" enable-background="new 0 0 512 512" xml:space="preserve">
<g>
	<g>
		<path fill="#EE4036" d="M414.753,389.16v21.584l9.99,4.255v8.262l-43.168-19.426v-7.894l43.168-19.487v8.387L414.753,389.16z
			 M408.463,391.812l-18.872,8.14l18.872,8.077V391.812z"/>
		<path fill="#EE4036" d="M381.576,368.511v-8.016h36.384v-22.571h6.784v30.587H381.576z"/>
		<path fill="#EE4036" d="M381.576,329.113v-8.016h36.384v-22.571h6.784v30.587H381.576z"/>
		<path fill="#EE4036" d="M381.576,289.717v-8.019h43.168v8.019H381.576z"/>
		<path fill="#EE4036" d="M414.753,239.585v21.584l9.99,4.255v8.262l-43.168-19.426v-7.894l43.168-19.487v8.387L414.753,239.585z
			 M408.463,242.236l-18.872,8.14l18.872,8.077V242.236z"/>
		<path fill="#EE4036" d="M381.576,180.58h43.168v6.598l-29.231,23.806h29.231v7.955h-43.168v-6.598l29.231-23.806h-29.231V180.58z"
			/>
		<path fill="#EE4036" d="M403.16,169.614c-12.889,0-22.2-9.868-22.2-23.126c0-7.031,2.527-13.075,7.214-17.083l4.873,5.181
			c-3.392,3.145-5.059,7.028-5.059,11.53c0,8.942,6.29,15.418,15.172,15.418c8.881,0,15.172-6.476,15.172-15.418
			c0-4.502-1.667-8.384-5.12-11.53l4.934-5.181c4.687,4.008,7.214,10.051,7.214,17.144
			C425.359,159.745,416.048,169.614,403.16,169.614z"/>
		<path fill="#EE4036" d="M418.02,86.866h6.723v32.376h-43.168V87.728h6.72v23.496h11.225V90.381h6.598v20.843h11.901V86.866z"/>
	</g>
	<g>
		<path fill="#262261" d="M87.764,112.245c0-14.875,11.588-25.888,27.392-25.888c15.732,0,27.39,10.942,27.39,25.888
			c0,14.948-11.657,25.891-27.39,25.891C99.351,138.136,87.764,127.12,87.764,112.245z M130.818,112.245
			c0-9.511-6.723-16.02-15.662-16.02s-15.662,6.508-15.662,16.02c0,9.513,6.723,16.02,15.662,16.02S130.818,121.757,130.818,112.245
			z"/>
		<path fill="#262261" d="M165.213,132.342l3.935-8.726c4.22,3.076,10.513,5.22,16.519,5.22c6.866,0,9.656-2.289,9.656-5.363
			c0-9.369-29.109-2.932-29.109-21.527c0-8.509,6.866-15.59,21.099-15.59c6.293,0,12.729,1.501,17.379,4.435l-3.578,8.795
			c-4.647-2.646-9.439-3.934-13.873-3.934c-6.866,0-9.511,2.576-9.511,5.721c0,9.227,29.106,2.861,29.106,21.241
			c0,8.367-6.935,15.52-21.238,15.52C177.657,138.136,169.648,135.775,165.213,132.342z"/>
		<path fill="#262261" d="M276.058,105.379c0,11.158-8.367,18.095-21.741,18.095h-10.083v13.802h-11.585V87.215h21.668
			C267.691,87.215,276.058,94.152,276.058,105.379z M264.331,105.379c0-5.506-3.575-8.724-10.656-8.724h-9.442v17.379h9.442
			C260.755,114.034,264.331,110.816,264.331,105.379z"/>
		<path fill="#262261" d="M299.727,112.245c0-14.875,11.588-25.888,27.392-25.888c15.732,0,27.39,10.942,27.39,25.888
			c0,14.948-11.657,25.891-27.39,25.891C311.315,138.136,299.727,127.12,299.727,112.245z M342.782,112.245
			c0-9.511-6.723-16.02-15.662-16.02c-8.939,0-15.662,6.508-15.662,16.02c0,9.513,6.723,16.02,15.662,16.02
			C336.059,128.264,342.782,121.757,342.782,112.245z"/>
	</g>
	<path fill="#262261" d="M321.855,232.911h-41.061v-35.479c0-11.54-9.387-20.927-20.927-20.927H110.376
		c-11.54,0-20.927,9.387-20.927,20.927v149.491c0,11.54,9.387,20.927,20.927,20.927h41.061v35.48
		c0,11.54,9.387,20.927,20.927,20.927h149.491c11.54,0,20.927-9.387,20.927-20.927V253.838
		C342.782,242.298,333.395,232.911,321.855,232.911z M110.376,353.898c-3.846,0-6.976-3.129-6.976-6.976V197.432
		c0-3.846,3.129-6.976,6.976-6.976h149.491c3.846,0,6.976,3.13,6.976,6.976v35.479h-94.479c-11.54,0-20.927,9.387-20.927,20.927
		v100.061H110.376z M266.843,246.862v100.061c0,3.846-3.129,6.976-6.976,6.976h-94.479V253.838c0-3.846,3.129-6.976,6.976-6.976
		H266.843z M328.831,403.33c0,3.846-3.129,6.976-6.976,6.976H172.364c-3.846,0-6.976-3.129-6.976-6.976v-35.48h94.479
		c11.54,0,20.927-9.387,20.927-20.927V246.862h41.061c3.846,0,6.976,3.129,6.976,6.976V403.33z"/>
	<path fill="#EE4036" d="M259.867,353.898c3.846,0,6.976-3.129,6.976-6.976V246.862h-94.479c-3.846,0-6.976,3.129-6.976,6.976
		v100.061H259.867z"/>
</g>
</svg>
